%YAML 1.1
%TAG !u! tag:unity3d.com,2011:
--- !u!74 &7400000
AnimationClip:
  m_ObjectHideFlags: 0
  m_CorrespondingSourceObject: {fileID: 0}
  m_PrefabInstance: {fileID: 0}
  m_PrefabAsset: {fileID: 0}
  m_Name: New Animation
  serializedVersion: 6
  m_Legacy: 0
  m_Compressed: 0
  m_UseHighQualityCurve: 1
  m_RotationCurves: []
  m_CompressedRotationCurves: []
  m_EulerCurves: []
  m_PositionCurves: []
  m_ScaleCurves: []
  m_FloatCurves: []
  m_PPtrCurves:
  - curve:
    - time: 0
      value: {fileID: 21300000, guid: 40c67eb7d043b314a863164df450cb03, type: 3}
    - time: 0.083333336
      value: {fileID: 21300000, guid: 31b50fb5b6d72934d8214146a0a08ef2, type: 3}
    - time: 0.16666667
      value: {fileID: 21300000, guid: 51eaf4863a67acc419e809feba8aeac7, type: 3}
    - time: 0.25
      value: {fileID: 21300000, guid: 71201f5cf90adaf4199fd00410028a37, type: 3}
    - time: 0.33333334
      value: {fileID: 21300000, guid: d4dca56d987fc3a40abe7698a4de1c7d, type: 3}
    - time: 0.41666666
      value: {fileID: 21300000, guid: 0aa872adc723def42b65426399e68708, type: 3}
    - time: 0.5
      value: {fileID: 21300000, guid: ceae938bd64b1d7449c6cf77de3e08b0, type: 3}
    - time: 0.5833333
      value: {fileID: 21300000, guid: 97f7e3fed3e0d7b4c9a72b7ffc926847, type: 3}
    - time: 0.6666667
      value: {fileID: 21300000, guid: 0f3dd69ee065fa44ba826e16d3a81519, type: 3}
    - time: 0.75
      value: {fileID: 21300000, guid: cfc9006644689734396c65d491cddf43, type: 3}
    - time: 0.8333333
      value: {fileID: 21300000, guid: 1ab376c3a353e204292b28b2365c39ae, type: 3}
    attribute: m_Sprite
    path: 
    classID: 212
    script: {fileID: 0}
  m_SampleRate: 12
  m_WrapMode: 0
  m_Bounds:
    m_Center: {x: 0, y: 0, z: 0}
    m_Extent: {x: 0, y: 0, z: 0}
  m_ClipBindingConstant:
    genericBindings:
    - serializedVersion: 2
      path: 0
      attribute: 0
      script: {fileID: 0}
      typeID: 212
      customType: 23
      isPPtrCurve: 1
    pptrCurveMapping:
    - {fileID: 21300000, guid: 40c67eb7d043b314a863164df450cb03, type: 3}
    - {fileID: 21300000, guid: 31b50fb5b6d72934d8214146a0a08ef2, type: 3}
    - {fileID: 21300000, guid: 51eaf4863a67acc419e809feba8aeac7, type: 3}
    - {fileID: 21300000, guid: 71201f5cf90adaf4199fd00410028a37, type: 3}
    - {fileID: 21300000, guid: d4dca56d987fc3a40abe7698a4de1c7d, type: 3}
    - {fileID: 21300000, guid: 0aa872adc723def42b65426399e68708, type: 3}
    - {fileID: 21300000, guid: ceae938bd64b1d7449c6cf77de3e08b0, type: 3}
    - {fileID: 21300000, guid: 97f7e3fed3e0d7b4c9a72b7ffc926847, type: 3}
    - {fileID: 21300000, guid: 0f3dd69ee065fa44ba826e16d3a81519, type: 3}
    - {fileID: 21300000, guid: cfc9006644689734396c65d491cddf43, type: 3}
    - {fileID: 21300000, guid: 1ab376c3a353e204292b28b2365c39ae, type: 3}
  m_AnimationClipSettings:
    serializedVersion: 2
    m_AdditiveReferencePoseClip: {fileID: 0}
    m_AdditiveReferencePoseTime: 0
    m_StartTime: 0
    m_StopTime: 0.9166666
    m_OrientationOffsetY: 0
    m_Level: 0
    m_CycleOffset: 0
    m_HasAdditiveReferencePose: 0
    m_LoopTime: 1
    m_LoopBlend: 0
    m_LoopBlendOrientation: 0
    m_LoopBlendPositionY: 0
    m_LoopBlendPositionXZ: 0
    m_KeepOriginalOrientation: 0
    m_KeepOriginalPositionY: 1
    m_KeepOriginalPositionXZ: 0
    m_HeightFromFeet: 0
    m_Mirror: 0
  m_EditorCurves: []
  m_EulerEditorCurves: []
  m_HasGenericRootTransform: 0
  m_HasMotionFloatCurves: 0
  m_Events: []
